{
    "name": "RusPost",
    "alias": "ruspost",
    "description": "",
    "keywords": [],
    "priority": 0,
    "providers": [
        "Modules\\RusPost\\Providers\\RusPostServiceProvider"
    ],
    "aliases": {},
    "files": [],
    "requires": []
}
